…
artwork_artist_tbl <- artwork %>% 
  left_join(artists, by = c("artist" = "name"), suffix = c("", "_ar_df")) %>% 
  separate(placeOfBirth, into = c("city", "country"), sep = ", ", extra = "merge")

artwork_artist_tbl %>% 
  filter(!is.na(country)) %>% 
  count(country, sort = T) %>% 
  reactable::reactable()

Tate Art Museum is a museum based in the United Kingdom, so I am not really surprised to see the UK arts being reported more frequently in this dataset.

artwork_artist_tbl %>% 
  count(country, artist, sort = T)

## # A tibble: 3,339 × 3
##    country        artist                             n
##    <chr>          <chr>                          <int>
##  1 United Kingdom Turner, Joseph Mallord William 39389
##  2 <NA>           Jones, George                   1046
##  3 United Kingdom Moore, Henry, OM, CH             623
##  4 United Kingdom Daniell, William                 612
##  5 Deutschland    Beuys, Joseph                    578
##  6 <NA>           British (?) School               388
##  7 United Kingdom Paolozzi, Sir Eduardo            385
##  8 United Kingdom Flaxman, John                    287
##  9 United Kingdom Phillips, Esq Tom                274
## 10 United States  Warhol, Andy                     272
## # … with 3,329 more rows
…
