…
-   We will try to aggregate the google\_analytics\_by\_page\_tbl by week. As of now the frequency of the dataset is daily.

``` r
product_page_sessions_weekly_tbl <- google_analytics_by_page_tbl %>% 
  select(date, pagePath, sessions) %>% 
  group_by(pagePath) %>% 
  summarise_by_time(.date_var = date, .by = "week", sessions = sum(sessions)) %>% 
  pivot_wider(names_from = pagePath, values_from = sessions, names_prefix = "sessions_") %>% 
  select(date, contains("/p/"))

product_page_sessions_weekly_tbl
```

    ## # A tibble: 44 × 6
    ##    date       `sessions_/p/4-course-bun… `sessions_/p/ds4b-1… `sessions_/p/jump…
    ##    <date>                          <dbl>                <dbl>              <dbl>
    ##  1 2019-05-05                         NA                   25                379
    ##  2 2019-05-12                         NA                   39                163
    ##  3 2019-05-19                         NA                   40                 98
    ##  4 2019-05-26                         NA                   84                 69
    ##  5 2019-06-02                         NA                   90                 62
    ##  6 2019-06-09                         NA                   75                 34
    ##  7 2019-06-16                         NA                  149                 36
    ##  8 2019-06-23                         NA                   96                 26
    ##  9 2019-06-30                         NA                   76                 16
    ## 10 2019-07-07                         NA                  108                 20
    ## # … with 34 more rows, and 2 more variables:
    ## #   sessions_/p/jumpstart-with-r/ <dbl>, sessions_/p/learning-labs-pro <dbl>

## Joining the two datasets by date

``` r
transactions_product_page_sessions_weekly_tbl <- transactions_weekly_tbl %>% 
  left_join(product_page_sessions_weekly_tbl, by = c("purchased_at" = "date")) 

transactions_product_page_sessions_weekly_tbl
```

    ## # A tibble: 91 × 7
    ##    purchased_at revenue `sessions_/p/4-cour… `sessions_/p/ds4b… `sessions_/p/ju…
    ##    <date>         <dbl>                <dbl>              <dbl>            <dbl>
    ##  1 2018-06-03    32736.                   NA                 NA               NA
    ##  2 2018-06-10    38290.                   NA                 NA               NA
    ##  3 2018-06-17    39974.                   NA                 NA               NA
    ##  4 2018-06-24    35622.                   NA                 NA               NA
    ##  5 2018-07-01    28984.                   NA                 NA               NA
    ##  6 2018-07-08    47251.                   NA                 NA               NA
    ##  7 2018-07-15    31512.                   NA                 NA               NA
    ##  8 2018-07-22    50986.                   NA                 NA               NA
    ##  9 2018-07-29    41183.                   NA                 NA               NA
    ## 10 2018-08-05    36598.                   NA                 NA               NA
    ## # … with 81 more rows, and 2 more variables:
    ## #   sessions_/p/jumpstart-with-r/ <dbl>, sessions_/p/learning-labs-pro <dbl>
…
<img src="{{< blogdown/postref >}}index_files/figure-html/unnamed-chunk-8-1.png" width="672" />
**Observations**: It looks like some of the products were very recently introduced to the website, which might be the reason we are observing missing data in our visualization above.

## Taking subset of the original data with more observations

``` r
transactions_product_page_subset_tbl <- transactions_product_page_sessions_weekly_tbl %>% 
  select(-contains("bundle"),  -ends_with("with-r/"))

transactions_product_page_subset_tbl
```

    ## # A tibble: 91 × 5
    ##    purchased_at revenue `sessions_/p/ds4b-… `sessions_/p/jump… `sessions_/p/lea…
    ##    <date>         <dbl>               <dbl>              <dbl>             <dbl>
    ##  1 2018-06-03    32736.                  NA                 NA                NA
    ##  2 2018-06-10    38290.                  NA                 NA                NA
    ##  3 2018-06-17    39974.                  NA                 NA                NA
    ##  4 2018-06-24    35622.                  NA                 NA                NA
    ##  5 2018-07-01    28984.                  NA                 NA                NA
    ##  6 2018-07-08    47251.                  NA                 NA                NA
    ##  7 2018-07-15    31512.                  NA                 NA                NA
    ##  8 2018-07-22    50986.                  NA                 NA                NA
    ##  9 2018-07-29    41183.                  NA                 NA                NA
    ## 10 2018-08-05    36598.                  NA                 NA                NA
    ## # … with 81 more rows

## Transforming our data

``` r
log_standardized_transactions_product_page_tbl <-  transactions_product_page_subset_tbl %>% 
  drop_na() %>% 
  mutate(across(-purchased_at, .fns = log1p)) %>% 
  mutate(across(-purchased_at, .fns = standardize_vec))

log_standardized_transactions_product_page_tbl
```

    ## # A tibble: 43 × 5
    ##    purchased_at revenue `sessions_/p/ds4b-… `sessions_/p/jump… `sessions_/p/lea…
    ##    <date>         <dbl>               <dbl>              <dbl>             <dbl>
    ##  1 2019-05-05    -1.87              -3.08               1.33             -0.341 
    ##  2 2019-05-12    -0.616             -1.88               0.738            -1.92  
    ##  3 2019-05-19    -2.02              -1.82               0.385            -0.0607
    ##  4 2019-05-26     0.802              0.200              0.142            -0.918 
    ##  5 2019-06-02     0.728              0.388              0.0682           -0.734 
    ##  6 2019-06-09     1.72              -0.110             -0.343            -1.97  
    ##  7 2019-06-16    -1.06               1.77              -0.305            -1.06  
    ##  8 2019-06-23     0.571              0.565             -0.525            -2.51  
    ##  9 2019-06-30    -0.694             -0.0737            -0.849             0.537 
    ## 10 2019-07-07    -0.241              0.887             -0.701            -1.19  
    ## # … with 33 more rows
…
