…
Data

chocolate <- readr::read_csv('https://raw.githubusercontent.com/rfordatascience/tidytuesday/master/data/2022/2022-01-18/chocolate.csv') %>% 
  mutate(first_memorable_characteristics = str_remove(most_memorable_characteristics, pattern = ",.*"))

Exploratory Data Visualization

chocolate %>% 
  count(company_manufacturer, sort = TRUE)

## # A tibble: 580 × 2
##    company_manufacturer     n
##    <chr>                <int>
##  1 Soma                    56
##  2 Fresco                  39
##  3 Arete                   32
##  4 Bonnat                  30
##  5 A. Morin                26
##  6 Dandelion               25
##  7 Pralus                  25
##  8 Domori                  23
##  9 Guittard                22
## 10 Valrhona                22
## # … with 570 more rows
…
chocolate %>% 
  count(company_location, sort = T)

## # A tibble: 67 × 2
##    company_location     n
##    <chr>            <int>
##  1 U.S.A.            1136
##  2 Canada             177
##  3 France             176
##  4 U.K.               133
##  5 Italy               78
##  6 Belgium             63
##  7 Ecuador             58
##  8 Australia           53
##  9 Switzerland         44
## 10 Germany             42
## # … with 57 more rows
…
