…
Takeaways from the plot above:

Decent amount of countries in the Asia with higher civil liberties score are classified as Developed country.

In Americas, most of the developed countries have a lower civil liberties score.

Math Check

freedom %>% 
  filter(year == 2020, 
         region_name == "Asia") %>% 
  select(country, civil_liberties, is_ldc) %>% 
  filter(is_ldc == "Developed")

## # A tibble: 38 × 3
##    country                    civil_liberties is_ldc   
##    <chr>                                <dbl> <chr>    
##  1 Armenia                                  4 Developed
##  2 Azerbaijan                               6 Developed
##  3 Bahrain                                  6 Developed
##  4 Brunei Darussalam                        5 Developed
##  5 China                                    6 Developed
##  6 Cyprus                                   1 Developed
##  7 Georgia                                  3 Developed
##  8 India                                    4 Developed
##  9 Indonesia                                4 Developed
## 10 Iran (Islamic Republic of)               6 Developed
## # … with 28 more rows
…
