…
# Read in data

``` r
data("theoffice", package = "schrute")
theoffice <- theoffice
theoffice
```

    ## # A tibble: 55,130 x 12
    ##    index season episode episode_name director  writer     character text        
    ##    <int>  <int>   <int> <chr>        <chr>     <chr>      <chr>     <chr>       
    ##  1     1      1       1 Pilot        Ken Kwap… Ricky Ger… Michael   All right J…
    ##  2     2      1       1 Pilot        Ken Kwap… Ricky Ger… Jim       Oh, I told …
    ##  3     3      1       1 Pilot        Ken Kwap… Ricky Ger… Michael   So you've c…
    ##  4     4      1       1 Pilot        Ken Kwap… Ricky Ger… Jim       Actually, y…
    ##  5     5      1       1 Pilot        Ken Kwap… Ricky Ger… Michael   All right. …
    ##  6     6      1       1 Pilot        Ken Kwap… Ricky Ger… Michael   Yes, I'd li…
    ##  7     7      1       1 Pilot        Ken Kwap… Ricky Ger… Michael   I've, uh, I…
    ##  8     8      1       1 Pilot        Ken Kwap… Ricky Ger… Pam       Well. I don…
    ##  9     9      1       1 Pilot        Ken Kwap… Ricky Ger… Michael   If you thin…
    ## 10    10      1       1 Pilot        Ken Kwap… Ricky Ger… Pam       What?       
    ## # … with 55,120 more rows, and 4 more variables: text_w_direction <chr>,
    ## #   imdb_rating <dbl>, total_votes <int>, air_date <fct>
…
    ## `summarise()` has grouped output by 'season', 'episode'. You can override using the `.groups` argument.

## Convert the long data into wide

``` r
theoffice_wide <- theoffice_long %>% 
  pivot_wider(names_from = character, values_from = n_lines, values_fill = 0)
theoffice_wide
```

    ## # A tibble: 186 x 24
    ## # Groups:   season, episode [186]
    ##    season episode rating Angela Dwight   Jan   Jim Kevin Michael Oscar   Pam
    ##     <int>   <int>  <dbl>  <int>  <int> <int> <int> <int>   <int> <int> <int>
    ##  1      1       1    7.6      1     29    12    36     1      81     3    41
    ##  2      1       2    8.3      4     17     0    25     8      75    13    12
    ##  3      1       3    7.9      5     62    18    42     6      56     9    32
    ##  4      1       4    8.1      7     47     0    49     3      68    14    22
    ##  5      1       5    8.4      3     25     0    21     1     104     2    14
    ##  6      1       6    7.8      3     28     8    55     5     106     1    45
    ##  7      2       1    8.7      1     32     9    32     1      96     2    41
    ##  8      2       2    8.2      2     11    11    16     6     100     0    27
    ##  9      2       3    8.4      6     55     0    55     9      83    10    33
    ## 10      2       4    8.4     17     65     0    51     5      69     4    22
    ## # … with 176 more rows, and 13 more variables: Phyllis <int>, Ryan <int>,
    ## #   Stanley <int>, Other <int>, Kelly <int>, Toby <int>, Meredith <int>,
    ## #   Darryl <int>, Andy <int>, Holly <int>, Erin <int>, Gabe <int>, Nellie <int>
…
# Check

``` r
theoffice_recipe %>% 
  prep() %>% 
  juice()
```

    ## # A tibble: 141 x 24
    ##    season episode Angela Dwight    Jan     Jim   Kevin Michael  Oscar     Pam
    ##     <int>   <int>  <dbl>  <dbl>  <dbl>   <dbl>   <dbl>   <dbl>  <dbl>   <dbl>
    ##  1      1       1 -0.818 -0.433  0.734  0.0823 -1.08    0.585  -0.676  0.831 
    ##  2      1       2 -0.491 -1.09  -0.364 -0.493  -0.0482  0.442   0.741 -0.863 
    ##  3      1       3 -0.382  1.38   1.28   0.396  -0.344  -0.0136  0.174  0.305 
    ##  4      1       4 -0.164  0.558 -0.364  0.762  -0.787   0.274   0.882 -0.279 
    ##  5      1       5 -0.600 -0.653 -0.364 -0.702  -1.08    1.14   -0.818 -0.746 
    ##  6      1       6 -0.600 -0.488  0.368  1.08   -0.491   1.18   -0.960  1.06  
    ##  7      2       1 -0.818 -0.267  0.459 -0.127  -1.08    0.945  -0.818  0.831 
    ##  8      2       2 -0.709 -1.42   0.642 -0.963  -0.344   1.04   -1.10   0.0133
    ##  9      2       3 -0.273  0.999 -0.364  1.08    0.0995  0.633   0.316  0.364 
    ## 10      2       4  0.924  1.55  -0.364  0.867  -0.491   0.298  -0.535 -0.279 
    ## # … with 131 more rows, and 14 more variables: Phyllis <dbl>, Ryan <dbl>,
    ## #   Stanley <dbl>, Other <dbl>, Kelly <dbl>, Toby <dbl>, Meredith <dbl>,
    ## #   Darryl <dbl>, Andy <dbl>, Holly <dbl>, Erin <dbl>, Gabe <dbl>,
    ## #   Nellie <dbl>, rating <dbl>

``` r
theoffice_recipe %>% 
  prep() %>% 
  juice() %>% 
  select(rating)
```

    ## # A tibble: 141 x 1
    ##    rating
    ##     <dbl>
    ##  1    7.6
    ##  2    8.3
    ##  3    7.9
    ##  4    8.1
    ##  5    8.4
    ##  6    7.8
    ##  7    8.7
    ##  8    8.2
    ##  9    8.4
    ## 10    8.4
    ## # … with 131 more rows
…
## Fit workflow

``` r
theoffice_ridge <- 
  theoffice_wf %>% 
  fit(data = theoffice_train)
theoffice_ridge %>% 
  yardstick::tidy() 
```

    ## # A tibble: 22 x 3
    ##    term        estimate penalty
    ##    <chr>          <dbl>   <dbl>
    ##  1 (Intercept)  8.26        0.1
    ##  2 Angela       0.0488      0.1
    ##  3 Dwight       0.0453      0.1
    ##  4 Jan          0.0812      0.1
    ##  5 Jim          0.0562      0.1
    ##  6 Kevin        0.0543      0.1
    ##  7 Michael      0.144       0.1
    ##  8 Oscar       -0.00691     0.1
    ##  9 Pam         -0.0266      0.1
    ## 10 Phyllis      0.0401      0.1
    ## # … with 12 more rows
…
